<?xml version="1.0" encoding="UTF-8" standalone="no"?>
<svg
   id="svg-infinity"
   width="1200"
   height="630"
   version="1.1"
   sodipodi:docname="opengraph.svg"
   viewBox="0 0 240 126"
   inkscape:version="1.2.1 (9c6d41e410, 2022-07-14)"
   xmlns:inkscape="http://www.inkscape.org/namespaces/inkscape"
   xmlns:sodipodi="http://sodipodi.sourceforge.net/DTD/sodipodi-0.dtd"
   xmlns:xlink="http://www.w3.org/1999/xlink"
   xmlns="http://www.w3.org/2000/svg"
   xmlns:svg="http://www.w3.org/2000/svg">
  <defs
     id="defs7">
    <linearGradient
       inkscape:collect="always"
       id="linearGradient11025">
      <stop
         style="stop-color:#000000;stop-opacity:1;"
         offset="0"
         id="stop11021" />
      <stop
         style="stop-color:#000000;stop-opacity:0;"
         offset="1"
         id="stop11023" />
    </linearGradient>
    <radialGradient
       inkscape:collect="always"
       xlink:href="#linearGradient11025"
       id="radialGradient11027" />
  </defs>
  <sodipodi:namedview
     id="namedview5"
     pagecolor="#ffffff"
     bordercolor="#666666"
     borderopacity="1.0"
     inkscape:showpageshadow="2"
     inkscape:pageopacity="0.0"
     inkscape:pagecheckerboard="0"
     inkscape:deskcolor="#d1d1d1"
     showgrid="false"
     inkscape:zoom="0.37460317"
     inkscape:cx="-76.080509"
     inkscape:cy="319.00424"
     inkscape:window-width="1916"
     inkscape:window-height="1039"
     inkscape:window-x="0"
     inkscape:window-y="0"
     inkscape:window-maximized="1"
     inkscape:current-layer="svg-infinity" />
  <g
     inkscape:groupmode="layer"
     id="layer1"
     inkscape:label="Layer 1"
     style="display:none;fill:url(#radialGradient11027);fill-opacity:1" />
  <path
     d="m 64.020876,12.855835 c -28.080733,0 -50.326508,22.245777 -50.326508,49.961825 0,28.080734 22.245775,50.32651 50.326508,50.32651 19.692982,0 34.645066,-9.8465 44.856234,-19.692982 4.37622,-4.376218 8.02307,-8.752437 11.30523,-12.76397 2.91748,4.011533 6.56433,8.387752 10.94055,12.76397 10.21117,9.846482 25.16325,19.692982 45.22092,19.692982 27.71605,0 49.96182,-22.245776 49.96182,-50.32651 0,-27.716048 -22.24577,-49.961825 -49.96182,-49.961825 -20.05767,0 -35.00975,9.846492 -45.22092,20.057668 -5.10559,4.740903 -8.02307,8.387751 -10.94055,12.399285 -3.28216,-4.011534 -6.92901,-8.387752 -11.30523,-12.399285 C 98.665942,22.702327 83.713858,12.855835 64.020876,12.855835 Z M 205.5186,62.81766 c 0,16.410819 -13.12866,29.539473 -29.17479,29.539473 -12.39929,0 -22.24578,-6.199642 -30.63353,-14.222709 -5.47027,-5.470273 -9.4818,-10.575861 -12.76397,-15.316764 1.82343,-2.188109 6.19964,-8.752436 12.76397,-14.952079 8.02307,-8.023066 18.23424,-14.222709 30.63353,-14.222709 16.04613,0 29.17479,13.128655 29.17479,29.174788 z m -171.037197,0 c 0,-16.046133 13.128655,-29.174788 29.539473,-29.174788 12.0346,0 22.245776,6.199643 30.268846,14.222709 5.834958,5.470273 9.481798,10.575861 12.763968,14.952079 -3.28217,4.740903 -7.293698,9.846491 -12.763968,15.316764 -8.387755,8.023067 -18.234246,14.222709 -30.268846,14.222709 -16.410818,0 -29.539473,-13.128654 -29.539473,-29.539473 z"
     id="path2"
     style="display:inline;fill:none;fill-opacity:0.710136;stroke:#6491ff;stroke-width:0.911712;stroke-linecap:square;stroke-linejoin:miter;stroke-dasharray:none;stroke-dashoffset:0;stroke-opacity:1" />
</svg>
